{
    "compilerOptions": {
        "baseUrl": ".",
        "paths": {
            "@components/*": ["components/*"],
            "@apis/*" : ["apis/*"],
            "@images/*" : ["public/images/*"],
            "@lib/*" : ["lib/*"],
            "@templates/*" : ["templates/*"],
            "@layouts/*" : ["templates/layouts/*"],
            "@redux/*" : ["redux/*"],
        }
    }
}